C:\Users\qamon\eclipse-workspace\UITests\src\main\java\com\cyance\components\LeftMenu.java
C:\Users\qamon\eclipse-workspace\UITests\src\main\java\com\cyance\helpers\SettingsHelper.java
C:\Users\qamon\eclipse-workspace\UITests\src\main\java\com\cyance\pages\LoginPage.java
C:\Users\qamon\eclipse-workspace\UITests\src\main\java\com\cyance\pages\NexusDashboardPage.java
